Homework #2: correction
…
nrow(relig_income_long) #18 religions * 10 income ranges = 180 

## [1] 180

Question 5

Compute the rounded percentage of people belonging to each religion per income range. Keep only the 5 top religions per income range (you can use group_by and slice_max function).

relig_income_long_top5 <- relig_income_long %>%
  group_by(income) %>%
  dplyr::mutate(percent = round(100*count/sum(count))) %>%
  slice_max(order_by = count, n = 5)
relig_income_long_top5

## # A tibble: 50 x 4
## # Groups:   income [10]
##    religion                income count percent
##    <chr>                   <chr>  <dbl>   <dbl>
##  1 Evangelical Prot        <$10k    575      30
##  2 Catholic                <$10k    418      22
##  3 Mainline Prot           <$10k    289      15
##  4 Historically Black Prot <$10k    228      12
##  5 Unaffiliated            <$10k    217      11
##  6 Mainline Prot           >150k    634      24
##  7 Catholic                >150k    633      24
##  8 Evangelical Prot        >150k    414      16
##  9 Unaffiliated            >150k    258      10
## 10 Jewish                  >150k    151       6
## # … with 40 more rows
…
